Workshops - 2. Procesamiento de datos con tidyverse
…
GENDER: Sexo

“Qué tan mal ven la mayoría de los adultos de tu barrio (aquellos más cercanos a ti) el que los jóvenes de tu edad…”

AWRMAR = fumen marihuana

AWRALC = Consuman alcohol

AWRCIG = fumen cigarrillo

los_datos |> 
  select(GENDER, AWRMAR, AWRALC, AWRCIG)

# A tibble: 23,220 × 4
   GENDER    AWRMAR     AWRALC     AWRCIG       
   <fct>     <fct>      <fct>      <fct>        
 1 Femenino  No tan mal No tan mal Para nada mal
 2 Masculino Muy mal    No tan mal Mal          
 3 Femenino  Muy mal    Mal        Muy mal      
 4 Femenino  Muy mal    Muy mal    Muy mal      
 5 Masculino Muy mal    Muy mal    Muy mal      
 6 Femenino  Muy mal    Muy mal    Muy mal      
 7 Femenino  Mal        No tan mal Para nada mal
 8 Femenino  Muy mal    Mal        Muy mal      
 9 Masculino Muy mal    No tan mal <NA>         
10 Masculino Muy mal    No tan mal Muy mal      
# ℹ 23,210 more rows
…
mutate()

Calcular el promedio de las tres variables

los_datos |> 
  select(AWRMAR, AWRALC, AWRCIG) |> 
  mutate(across(everything(), transformar_respuesta)) |> 
  mutate(TOTAL = (AWRMAR + AWRALC + AWRCIG)/3)

# A tibble: 23,220 × 4
   AWRMAR AWRALC AWRCIG TOTAL
    <dbl>  <dbl>  <dbl> <dbl>
 1     NA     NA      4 NA   
 2      1     NA      2 NA   
 3      1      2      1  1.33
 4      1      1      1  1   
 5      1      1      1  1   
 6      1      1      1  1   
 7      2     NA      4 NA   
 8      1      2      1  1.33
 9      1     NA     NA NA   
10      1     NA      1 NA   
# ℹ 23,210 more rows
…
across(): aplicar una función a varias columnas de un data frame. En este caso, se utiliza para aplicar la función transformar_respuesta() a todas las columnas del objeto “los_datos”.

everything(): seleccionar todas las columnas de un data frame o tibble. En este caso, se utiliza para aplicar la función transformar_respuesta() a todas las columnas del objeto “los_datos”.

filter()

Permite seleccionar filas de la base de datos según una condición.

Voy a utilizar un filtro para seleccionar solamente las filas en las que los adultos respondieron “No tan mal” cuando preguntaron por sus actitudes frente al consumo de marihuana (AWRMAR).

los_datos |> 
  select(GENDER, AWRMAR, AWRALC, AWRCIG) |> 
  filter(AWRMAR == "No tan mal")

# A tibble: 1,501 × 4
   GENDER    AWRMAR     AWRALC        AWRCIG       
   <fct>     <fct>      <fct>         <fct>        
 1 Femenino  No tan mal No tan mal    Para nada mal
 2 Femenino  No tan mal No tan mal    No tan mal   
 3 Femenino  No tan mal No tan mal    Mal          
 4 Masculino No tan mal No tan mal    No tan mal   
 5 Femenino  No tan mal No tan mal    No tan mal   
 6 Femenino  No tan mal No tan mal    No tan mal   
 7 Femenino  No tan mal No tan mal    No tan mal   
 8 Masculino No tan mal No tan mal    Para nada mal
 9 Masculino No tan mal No tan mal    <NA>         
10 Masculino No tan mal Para nada mal No tan mal   
# ℹ 1,491 more rows

Con este filtro puedo ver que en los primeros 10 casos, cuando un adulto seleccionó que no está tan mal fumar marihuana, sus respuestas sobre el consumo de alcohol y cigarrillo parecen seguir un patrón similar.

filter()

Ahora, miremos qué pasa si filtro por la opción “Muy mal”

los_datos |> 
  select(GENDER, AWRMAR, AWRALC, AWRCIG) |> 
  filter(AWRMAR == "Muy mal")

# A tibble: 15,480 × 4
   GENDER    AWRMAR  AWRALC     AWRCIG 
   <fct>     <fct>   <fct>      <fct>  
 1 Masculino Muy mal No tan mal Mal    
 2 Femenino  Muy mal Mal        Muy mal
 3 Femenino  Muy mal Muy mal    Muy mal
 4 Masculino Muy mal Muy mal    Muy mal
 5 Femenino  Muy mal Muy mal    Muy mal
 6 Femenino  Muy mal Mal        Muy mal
 7 Masculino Muy mal No tan mal <NA>   
 8 Masculino Muy mal No tan mal Muy mal
 9 Femenino  Muy mal Muy mal    <NA>   
10 <NA>      Muy mal Muy mal    Muy mal
# ℹ 15,470 more rows
…
