Workshops - 3. Estimar un modelo
…
Obtener las predicciones y los valores observadods para calcular algunas métricas.

entrenamiento <- datos_entrenamiento %>% 
    select(-PYALC)

prediccion <- predict(lm_results, entrenamiento)

resultados_prueba <- cbind(prediccion, datos_entrenamiento) |> 
  select(.pred_class, PYALC, everything()) |> 
  tibble()

resultados_prueba

# A tibble: 10,005 × 13
   .pred_class     PYALC  CRPAD CRLNFD FRPFD FRPFM SRLCS PRFAD PRATA YEAR  GRADE
   <fct>           <fct>  <dbl>  <dbl> <dbl> <dbl> <dbl> <dbl> <dbl> <fct> <dbl>
 1 Sí ha consumido No ha…  4      2     1     1.62  1.86  1      1   2014      7
 2 No ha consumido No ha…  1      2     1     2     2.17  1      1.2 2017      7
 3 No ha consumido No ha…  1      2.2   1     1.25  1.6   1      1.2 2017      6
 4 Sí ha consumido No ha…  1      1.67  1     1.12  2.43  1.5    1.2 2012…     9
 5 Sí ha consumido No ha…  3.75   2.33  1     2     2.43  1.25   1   2014      8
 6 Sí ha consumido No ha…  3.25   1.67  1.33  1.62  1.86  1.5    1.2 2014      7
 7 Sí ha consumido No ha…  1.75   1.8   2     2     1.67  2      2   2017     11
 8 No ha consumido No ha…  1      3.4   1     4     1.83  1      1   2017      6
 9 Sí ha consumido No ha…  2.75   2.17  1     1.5   3.29  1      1.2 2014      6
10 Sí ha consumido No ha…  1      1.8   1     2.29  1.86  1.75   1   2014      8
# ℹ 9,995 more rows
# ℹ 2 more variables: GENDER <fct>, AGE <dbl>
…
