Workshops - Imbalanced data in Machine Learning Modeling
…
lm_results <- lm_model |>
  fit(outcome ~ ., data = the_data)

Here the model is fitted-estimated using the fit() function. The response variable (outcome) and the predictors (.) are specified and the the_data object is used as a database.

3. Check the model results

lm_results |> tidy()

# A tibble: 41 × 5
   term        estimate std.error statistic    p.value
   <chr>          <dbl>     <dbl>     <dbl>      <dbl>
 1 (Intercept)  -0.851     1.10      -0.773 0.440     
 2 P2001        -2.08      0.546     -3.81  0.000141  
 3 P2002         0.754     0.272      2.77  0.00553   
 4 P2003        -1.44      0.320     -4.49  0.00000707
 5 P2004        -0.142     0.281     -0.507 0.612     
 6 P2005        -0.0850    0.445     -0.191 0.849     
 7 P3           -0.0153    0.0118    -1.30  0.192     
 8 P4            0.0137    0.0205     0.670 0.503     
 9 P13          -0.388     0.186     -2.08  0.0374    
10 P142         -0.209     0.382     -0.546 0.585     
# ℹ 31 more rows
…
2. Estimate the model

Model Estimation: The lm_model() and fit() function is used to fit a linear regression model. The outcome ~ . indicates that the score variable is being modeled as a function of all the other variables in the “training_data” dataframe.

lm_results <- lm_model |>
  fit(outcome ~ ., data = training_data)

3. Model results

View model results: The tidy function is used to obtain a clean and tidy summary of the model results.

lm_results |>
  tidy()

# A tibble: 41 × 5
   term        estimate std.error statistic     p.value
   <chr>          <dbl>     <dbl>     <dbl>       <dbl>
 1 (Intercept) -0.244      1.22      -0.199 0.842      
 2 P2001       -1.98       0.555     -3.56  0.000368   
 3 P2002        0.696      0.300      2.32  0.0204     
 4 P2003       -2.02       0.390     -5.19  0.000000208
 5 P2004       -0.189      0.308     -0.613 0.540      
 6 P2005       -0.378      0.502     -0.752 0.452      
 7 P3          -0.0243     0.0132    -1.84  0.0664     
 8 P4           0.00650    0.0228     0.285 0.776      
 9 P13         -0.257      0.210     -1.22  0.221      
10 P142        -0.482      0.449     -1.07  0.283      
# ℹ 31 more rows
…
